> 02 🤝 > say hello to your data
…
---

class: inverse
.hand[Inspecting the data]

```r
print(frames)
```
--

```
## # A tibble: 4,725 x 8
##      id gender   age condition sample_size n_obs test_item
##   <dbl> <chr>  <dbl> <chr>     <chr>       <dbl>     <dbl>
## 1     1 male      36 category  small           2         1
## 2     1 male      36 category  small           2         2
## 3     1 male      36 category  small           2         3
## 4     1 male      36 category  small           2         4
## 5     1 male      36 category  small           2         5
## 6     1 male      36 category  small           2         6
## # … with 4,719 more rows, and 1 more variable:
## #   response <dbl>
```
…
background-image: url("img/drawer2.jpg")
background-size: cover

.hand[Group, summarise...]

```r
frames %>%
  group_by(test_item, sample_size, n_obs, condition) %>%
  summarise(response = mean(response))
```
--

```
## # A tibble: 42 x 5
*## # Groups:   test_item, sample_size, n_obs [21]
*##   test_item sample_size n_obs condition response
##       <dbl> <chr>       <dbl> <chr>        <dbl>
## 1         1 large          12 category      7.60
## 2         1 large          12 property      7.16
## 3         1 medium          6 category      7.32
## 4         1 medium          6 property      6.66
## # … with 38 more rows
```
…
background-image: url("img/drawer2.jpg")
background-size: cover

.hand[Group, summarise, and ungroup]

```r
frames %>%
  group_by(test_item, sample_size, n_obs, condition) %>%
  summarise(response = mean(response)) %>%
* ungroup()
```

```
## # A tibble: 42 x 5
*##   test_item sample_size n_obs condition response
##       <dbl> <chr>       <dbl> <chr>        <dbl>
## 1         1 large          12 category      7.60
## 2         1 large          12 property      7.16
## 3         1 medium          6 category      7.32
## 4         1 medium          6 property      6.66
## # … with 38 more rows
```
…
