> 03 💃 > dplyr, or a dance with data
…
background-image: url("img/swow_concreteness_strongfade.jpg")
background-size: cover

.hand[Import the SWOW data]
--

```r
library(tidyverse)
swow <- read_tsv(file = "data_swow.csv.zip")
swow <- swow %>% mutate(id = 1:n()) # <- ignore for now
```
--

```
## # A tibble: 483,636 x 6
*##   cue   response    R1     N R1.Strength    id
##   <chr> <chr>    <dbl> <dbl>       <dbl> <int>
## 1 a     one         21    97      0.216      1
## 2 a     the         16    97      0.165      2
## 3 a     b            9    97      0.0928     3
## 4 a     an           4    97      0.0412     4
## 5 a     first        3    97      0.0309     5
## # … with 483,631 more rows
```
…
background-image: url("img/swow_concreteness_strongfade.jpg")
background-size: cover

.hand[Automated name cleaning?]
--

```r
library(janitor)
swow <- clean_names(swow)
```
--

```
## # A tibble: 483,636 x 6
*##   cue   response    r1     n r1_strength    id
##   <chr> <chr>    <dbl> <dbl>       <dbl> <int>
## 1 a     one         21    97      0.216      1
## 2 a     the         16    97      0.165      2
## 3 a     b            9    97      0.0928     3
## 4 a     an           4    97      0.0412     4
## 5 a     first        3    97      0.0309     5
## # … with 483,631 more rows
```
…
.hand[Manual name cleaning]
--

```r
swow <- swow %>%
  rename(n_response = r1, 
         n_total = n, 
         strength = r1_strength)
```
--

```
## # A tibble: 483,636 x 6
*##   cue   response n_response n_total strength    id
##   <chr> <chr>         <dbl>   <dbl>    <dbl> <int>
## 1 a     one              21      97   0.216      1
## 2 a     the              16      97   0.165      2
## 3 a     b                 9      97   0.0928     3
## # … with 483,633 more rows
```
…
background-image: url("img/filter_fade.jpg")
background-size: cover

.hand[Filter to keep a subset of the data]

--

```r
swow %>%
  filter(cue == "woman")
```
--

```
## # A tibble: 28 x 6
##   cue   response n_response n_total strength     id
##   <chr> <chr>         <dbl>   <dbl>    <dbl>  <int>
## 1 woman man              38     100     0.38 477315
## 2 woman female           22     100     0.22 477316
## 3 woman girl              7     100     0.07 477317
## 4 woman lady              5     100     0.05 477318
## # … with 24 more rows
```
…
---

background-image: url("img/arrange_fade.jpg")
background-size: cover

.hand[The forward data are arranged neatly]

```r
swow %>%
  filter(cue == "woman", n_response > 1)
```

```
## # A tibble: 8 x 6
##   cue   response n_response n_total strength     id
##   <chr> <chr>         <dbl>   <dbl>    <dbl>  <int>
## 1 woman man              38     100     0.38 477315
## 2 woman female           22     100     0.22 477316
## 3 woman girl              7     100     0.07 477317
## 4 woman lady              5     100     0.05 477318
## 5 woman beauty            2     100     0.02 477319
## 6 woman me                2     100     0.02 477320
## # … with 2 more rows
```

---

background-image: url("img/arrange_fade.jpg")
background-size: cover

.hand[The backward data are not]

```r
swow %>%
  filter(response == "woman", n_response > 1)
```

```
## # A tibble: 200 x 6
##   cue           response n_response n_total strength    id
##   <chr>         <chr>         <dbl>   <dbl>    <dbl> <int>
## 1 abuse         woman             2     100   0.02    1353
## 2 actress       woman             7     100   0.07    3921
## 3 Amazon        woman             2     100   0.02   12286
## 4 American      woman             2     100   0.02   12941
## 5 apron         woman             2      98   0.0204 19310
## 6 argumentative woman             2     100   0.02   20182
## # … with 194 more rows
```
…
background-image: url("img/arrange_fade.jpg")
background-size: cover

.hand[Lets arrange() them]

```r
swow %>%
  filter(response == "woman", n_response > 1) %>%
  arrange(strength)
```
--

```
## # A tibble: 200 x 6
##   cue           response n_response n_total strength    id
##   <chr>         <chr>         <dbl>   <dbl>    <dbl> <int>
## 1 abuse         woman             2     100     0.02  1353
## 2 Amazon        woman             2     100     0.02 12286
## 3 American      woman             2     100     0.02 12941
## 4 argumentative woman             2     100     0.02 20182
## 5 attract       woman             2     100     0.02 25876
## # … with 195 more rows
```
---

background-image: url("img/arrange_fade.jpg")
background-size: cover

.hand[Lets arrange() them, in descending order]

```r
swow %>%
  filter(response == "woman", n_response > 1) %>%
  arrange(desc(strength))
```

```
## # A tibble: 200 x 6
##   cue      response n_response n_total strength     id
##   <chr>    <chr>         <dbl>   <dbl>    <dbl>  <int>
## 1 man      woman            57      99    0.576 258593
## 2 lady     woman            36     100    0.36  240149
## 3 feminist woman            30      99    0.303 158641
## 4 female   woman            23      99    0.232 158492
## 5 pregnant woman            18     100    0.18  327286
## # … with 195 more rows
```
…
.hand[Select cue, response and strength]

```r
swow %>%
  filter(response == "woman", n_response > 1) %>%
  arrange(desc(strength)) %>%
* select(cue, response, strength)
```

--

```
## # A tibble: 200 x 3
##   cue      response strength
##   <chr>    <chr>       <dbl>
## 1 man      woman       0.576
## 2 lady     woman       0.36 
## 3 feminist woman       0.303
## # … with 197 more rows
```
…
.hand[Alternative approach...]

```r
swow %>%
  filter(response == "woman", n_response > 1) %>%
  arrange(desc(strength)) %>%
* select(-n_response, -n_total)
```

--

```
## # A tibble: 200 x 4
##   cue      response strength     id
##   <chr>    <chr>       <dbl>  <int>
## 1 man      woman       0.576 258593
## 2 lady     woman       0.36  240149
## 3 feminist woman       0.303 158641
## # … with 197 more rows
```
…
<img src="index_files/figure-html/mutate0-1.png" width="600" height="400" />

---

background-image: url("img/butterfly_fade.jpg")
background-size: cover

.hand[Forward: compete with responses to **same** cue]

```r
woman_fwd
```

```
## # A tibble: 8 x 4
##   cue   response strength     id
##   <chr> <chr>       <dbl>  <int>
## 1 woman man          0.38 477315
## 2 woman female       0.22 477316
## 3 woman girl         0.07 477317
## 4 woman lady         0.05 477318
## 5 woman beauty       0.02 477319
## 6 woman me           0.02 477320
## # … with 2 more rows
```

---

background-image: url("img/butterfly_fade.jpg")
background-size: cover

.hand[Backward: compete with responses to **other** cues]

```r
woman_bck
```

```
## # A tibble: 200 x 4
##   cue       response strength     id
##   <chr>     <chr>       <dbl>  <int>
## 1 man       woman       0.576 258593
## 2 lady      woman       0.36  240149
## 3 feminist  woman       0.303 158641
## 4 female    woman       0.232 158492
## 5 pregnant  woman       0.18  327286
## 6 housewife woman       0.17  209394
## # … with 194 more rows
```

---

background-image: url("img/butterfly_fade.jpg")
background-size: cover

.hand[Use mutate() to compute new variables]

```r
woman_fwd %>%
  mutate(rank = rank(-strength))
```

```
## # A tibble: 8 x 5
##   cue   response strength     id  rank
##   <chr> <chr>       <dbl>  <int> <dbl>
## 1 woman man          0.38 477315   1  
## 2 woman female       0.22 477316   2  
## 3 woman girl         0.07 477317   3  
## 4 woman lady         0.05 477318   4  
## 5 woman beauty       0.02 477319   6.5
## # … with 3 more rows
```

---

background-image: url("img/butterfly_fade.jpg")
background-size: cover

.hand[Use mutate() to compute new variables]

```r
woman_bck %>%
  mutate(rank = rank(-strength))
```

```
## # A tibble: 200 x 5
##   cue      response strength     id  rank
##   <chr>    <chr>       <dbl>  <int> <dbl>
## 1 man      woman       0.576 258593     1
## 2 lady     woman       0.36  240149     2
## 3 feminist woman       0.303 158641     3
## 4 female   woman       0.232 158492     4
## 5 pregnant woman       0.18  327286     5
## # … with 195 more rows
```

---

background-image: url("img/butterfly_fade.jpg")
background-size: cover

.hand[Use mutate() to compute new variables]

```r
woman_bck %>%
  mutate(rank = rank(-strength), type = "backward")
```

```
## # A tibble: 200 x 6
##   cue      response strength     id  rank type    
##   <chr>    <chr>       <dbl>  <int> <dbl> <chr>   
## 1 man      woman       0.576 258593     1 backward
## 2 lady     woman       0.36  240149     2 backward
## 3 feminist woman       0.303 158641     3 backward
## 4 female   woman       0.232 158492     4 backward
## 5 pregnant woman       0.18  327286     5 backward
## # … with 195 more rows
```
…
background-image: url("img/bind_fade.jpg")
background-size: cover

.hand[Use bind_rows() to stack data sets vertically]

```r
gender <- bind_rows(woman_fwd, woman_bck, 
                    man_fwd, man_bck)
```

--

```
*## # A tibble: 505 x 8
##   cue   response strength     id  rank type    word  associate
## * <chr> <chr>       <dbl>  <int> <dbl> <fct>   <chr> <chr>    
## 1 woman man          0.38 477315   1   forward woman man      
## 2 woman female       0.22 477316   2   forward woman female   
## 3 woman girl         0.07 477317   3   forward woman girl     
## 4 woman lady         0.05 477318   4   forward woman lady     
## 5 woman beauty       0.02 477319   6.5 forward woman beauty   
## 6 woman me           0.02 477320   6.5 forward woman me       
## # … with 499 more rows
```
---

background-image: url("img/bind_fade.jpg")
background-size: cover

.hand[Clean up using select()...]

```r
gender <- bind_rows(woman_fwd, woman_bck, 
                    man_fwd, man_bck) %>%
  select(id:associate)
```

```
## # A tibble: 505 x 5
##       id  rank type    word  associate
##    <int> <dbl> <fct>   <chr> <chr>    
## 1 477315   1   forward woman man      
## 2 477316   2   forward woman female   
## 3 477317   3   forward woman girl     
## 4 477318   4   forward woman lady     
## 5 477319   6.5 forward woman beauty   
## # … with 500 more rows
```
…
background-image: url("img/bind_fade.jpg")
background-size: cover

.hand[Clean up using select() and filter()]

```r
gender <- bind_rows(woman_fwd, woman_bck, 
                    man_fwd, man_bck) %>%
  select(id:associate) %>%
  filter(associate != "man", associate != "woman")
```

```
## # A tibble: 501 x 5
##       id  rank type    word  associate
##    <int> <dbl> <fct>   <chr> <chr>    
## 1 477316   2   forward woman female   
## 2 477317   3   forward woman girl     
## 3 477318   4   forward woman lady     
## 4 477319   6.5 forward woman beauty   
## # … with 497 more rows
```
…
---

class: middle, inverse

background-image: url("img/join_fade.jpg")
background-size: cover

.hand[Restore all the variables?]

```r
gender
```

```
## # A tibble: 501 x 5
##        id  rank type     word  associate
##     <int> <dbl> <fct>    <chr> <chr>    
##  1 477316   2   forward  woman female   
##  2 477317   3   forward  woman girl     
##  3 477318   4   forward  woman lady     
##  4 477319   6.5 forward  woman beauty   
##  5 477320   6.5 forward  woman me       
##  6 477321   6.5 forward  woman strong   
##  7 477322   6.5 forward  woman wife     
##  8 240149   2   backward woman lady     
##  9 158641   3   backward woman feminist 
## 10 158492   4   backward woman female   
## # … with 491 more rows
```
…
class: middle, inverse

background-image: url("img/join_fade.jpg")
background-size: cover

.hand[Restore all the variables?]

```r
gender %>%
  left_join(swow, by = "id")
```

```
## # A tibble: 501 x 10
##        id  rank type  word  associate cue   response n_response n_total strength
##  *  <int> <dbl> <fct> <chr> <chr>     <chr> <chr>         <dbl>   <dbl>    <dbl>
##  1 477316   2   forw… woman female    woman female           22     100    0.22 
##  2 477317   3   forw… woman girl      woman girl              7     100    0.07 
##  3 477318   4   forw… woman lady      woman lady              5     100    0.05 
##  4 477319   6.5 forw… woman beauty    woman beauty            2     100    0.02 
##  5 477320   6.5 forw… woman me        woman me                2     100    0.02 
##  6 477321   6.5 forw… woman strong    woman strong            2     100    0.02 
##  7 477322   6.5 forw… woman wife      woman wife              2     100    0.02 
##  8 240149   2   back… woman lady      lady  woman            36     100    0.36 
##  9 158641   3   back… woman feminist  femi… woman            30      99    0.303
## 10 158492   4   back… woman female    fema… woman            23      99    0.232
## # … with 491 more rows
```
…
