> 03 > tidying your data
…
---

class: inverse
.hand[Import data]

```r
library(tidyverse)
frames <- read_csv(file = "data_reasoning.csv")
```
--

```
## # A tibble: 4,725 x 8
##      id gender   age condition sample_size n_obs test_item
##   <dbl> <chr>  <dbl> <chr>     <chr>       <dbl>     <dbl>
## 1     1 male      36 category  small           2         1
## 2     1 male      36 category  small           2         2
## 3     1 male      36 category  small           2         3
## 4     1 male      36 category  small           2         4
## 5     1 male      36 category  small           2         5
## 6     1 male      36 category  small           2         6
## # … with 4,719 more rows, and 1 more variable:
## #   response <dbl>
```
…
---
class: inverse
.hand[filter()]

```r
mean_resp 
```

--

```
## # A tibble: 42 x 5
##   test_item sample_size n_obs condition response
##       <dbl> <chr>       <dbl> <chr>        <dbl>
## 1         1 large          12 category      7.60
## 2         1 large          12 property      7.16
## 3         1 medium          6 category      7.32
## 4         1 medium          6 property      6.66
*## 5         1 small           2 category      6.07
*## 6         1 small           2 property      5.78
## # … with 36 more rows
```

---
class: inverse
.hand[filter()]

```r
mean_resp %>% 
  filter(sample_size == "small")
```

--

```
## # A tibble: 14 x 5
##   test_item sample_size n_obs condition response
##       <dbl> <chr>       <dbl> <chr>        <dbl>
*## 1         1 small           2 category      6.07
*## 2         1 small           2 property      5.78
## 3         2 small           2 category      6.26
## 4         2 small           2 property      6.21
## 5         3 small           2 category      5.87
## 6         3 small           2 property      5.24
## # … with 8 more rows
```

---
class: inverse
.hand[.]

```r
mean_resp %>%
  filter(sample_size == "small")
```

```
## # A tibble: 14 x 5
##   test_item sample_size n_obs condition response
##       <dbl> <chr>       <dbl> <chr>        <dbl>
*## 1         1 small           2 category      6.07
## 2         1 small           2 property      5.78
*## 3         2 small           2 category      6.26
## 4         2 small           2 property      6.21
## 5         3 small           2 category      5.87
## 6         3 small           2 property      5.24
## # … with 8 more rows
```

---
class: inverse
.hand[arrange()]

```r
mean_resp %>%
  filter(sample_size == "small") %>%
* arrange(condition)
```

```
## # A tibble: 14 x 5
##   test_item sample_size n_obs condition response
##       <dbl> <chr>       <dbl> <chr>        <dbl>
*## 1         1 small           2 category      6.07
*## 2         2 small           2 category      6.26
## 3         3 small           2 category      5.87
## 4         4 small           2 category      5.11
## 5         5 small           2 category      4.55
## # … with 9 more rows
```

---
class: inverse
.hand[select()]

```r
mean_resp %>%
  filter(sample_size == "small") %>%
  arrange(condition) %>%
* select(test_item, condition, response)
```
--

```
## # A tibble: 14 x 3
##   test_item condition response
##       <dbl> <chr>        <dbl>
## 1         1 category      6.07
## 2         2 category      6.26
## 3         3 category      5.87
## 4         4 category      5.11
## # … with 10 more rows
```
…
---
class: inverse
.hand[print output from a variable]

```r
mean_resp_small <- mean_resp %>%
  filter(sample_size == "small") %>%
  arrange(condition) %>%
  select(test_item, condition, response)

*print(mean_resp_small, n = 2)
```

```
## # A tibble: 14 x 3
##   test_item condition response
##       <dbl> <chr>        <dbl>
## 1         1 category      6.07
## 2         2 category      6.26
## # … with 12 more rows
```

---
class: inverse
.hand[mutate()]

```r
mean_resp_small %>%
* mutate(generalisation = response/9) %>%
  print(n = 5)
```

```
## # A tibble: 14 x 4
##   test_item condition response generalisation
##       <dbl> <chr>        <dbl>          <dbl>
## 1         1 category      6.07          0.674
## 2         2 category      6.26          0.696
## 3         3 category      5.87          0.652
## 4         4 category      5.11          0.568
## 5         5 category      4.55          0.506
## # … with 9 more rows
```

---
class: inverse
.hand[mutate() and select()]

```r
mean_resp_small %>%
* mutate(generalisation = response/9) %>%
* select(-response) %>%
  print(n = 4)
```

```
## # A tibble: 14 x 3
##   test_item condition generalisation
##       <dbl> <chr>              <dbl>
## 1         1 category           0.674
## 2         2 category           0.696
## 3         3 category           0.652
## 4         4 category           0.568
## # … with 10 more rows
```
…
---
class: inverse

```r
long_data <- mean_resp_small %>%
  mutate(generalisation = response/9) %>% 
  select(-response) %>%
  arrange(test_item) %>%
  print(n = 4)
```
--

```
*## # A tibble: 14 x 3
##   test_item condition generalisation
##       <dbl> <chr>              <dbl>
*## 1         1 category           0.674
*## 2         1 property           0.643
## 3         2 category           0.696
## 4         2 property           0.690
## # … with 10 more rows
```
…
---
class: inverse

```r
wide_data <- long_data %>%
  pivot_wider(
    names_from = condition, 
    values_from = generalisation 
  ) %>% 
  print(n = 4)
```

```
*## # A tibble: 7 x 3
##   test_item category property
##       <dbl>    <dbl>    <dbl>
*## 1         1    0.674    0.643
## 2         2    0.696    0.690
## 3         3    0.652    0.583
## 4         4    0.568    0.521
## # … with 3 more rows
```
…
---
class: inverse

```r
wide_data %>% 
  pivot_longer(
    cols = c(category, property), 
    names_to = "condition", 
    values_to = "generalisation"
  ) %>%
  print(n = 4)
```

```
## # A tibble: 14 x 3
##   test_item condition generalisation
##       <dbl> <chr>              <dbl>
## 1         1 category           0.674
## 2         1 property           0.643
## 3         2 category           0.696
## 4         2 property           0.690
## # … with 10 more rows
```
…
# sometimes from two different participants...
results10 <- read_csv("data_results10.csv")
results20 <- read_csv("data_results20.csv")
```

---
class: inverse
.hand[we want to "stack" these vertically...]

```r
results10
```

```
## # A tibble: 60 x 5
##   participant feature    est  true band   
##         <dbl> <chr>    <dbl> <dbl> <chr>  
## 1          10 PLCW.6.5     3  1.57 Band 01
## 2          10 PLCY.6.A    15  1.97 Band 01
## 3          10 PLCZ.3.2     8  2.1  Band 01
## 4          10 PUCX.4.b     5  1.10 Band 01
## 5          10 PUCC.8.7    30  1.10 Band 01
## 6          10 PUCF.8.7    30  1.13 Band 01
## # … with 54 more rows
```

---
class: inverse
.hand[we want to "stack" these vertically...]

```r
results20
```

```
*## # A tibble: 60 x 5
##   participant feature    est  true band   
##         <dbl> <chr>    <dbl> <dbl> <chr>  
## 1          20 PLCW.6.5    15  1.57 Band 01
## 2          20 PLCY.6.A    60  1.97 Band 01
## 3          20 PLCZ.3.2    10  2.1  Band 01
## 4          20 PUCX.4.b    65  1.10 Band 01
## 5          20 PUCC.8.7    35  1.10 Band 01
## 6          20 PUCF.8.7    50  1.13 Band 01
## # … with 54 more rows
```

---
class: inverse
.hand[we want to "stack" these vertically... with **bind_rows()**]

```r
bind_rows(results10, results20)
```

```
*## # A tibble: 120 x 5
##   participant feature    est  true band   
##         <dbl> <chr>    <dbl> <dbl> <chr>  
## 1          10 PLCW.6.5     3  1.57 Band 01
## 2          10 PLCY.6.A    15  1.97 Band 01
## 3          10 PLCZ.3.2     8  2.1  Band 01
## 4          10 PUCX.4.b     5  1.10 Band 01
## 5          10 PUCC.8.7    30  1.10 Band 01
## 6          10 PUCF.8.7    30  1.13 Band 01
## # … with 114 more rows
```

---
class: inverse
.hand[we want to "stack" these vertically... with **bind_rows()**]

```r
bind_rows(results10, results20) %>% arrange(feature)
```

```
## # A tibble: 120 x 5
##   participant feature    est  true band   
##         <dbl> <chr>    <dbl> <dbl> <chr>  
*## 1          10 CLCE.2.1    95  99.1 Band 99
*## 2          20 CLCE.2.1    99  99.1 Band 99
## 3          10 CLCF.2.1    80  79.8 Band 75
## 4          20 CLCF.2.1    50  79.8 Band 75
## 5          10 CLCF.6.5    70  50.9 Band 50
## 6          20 CLCF.6.5    65  50.9 Band 50
## # … with 114 more rows
```
…
---
class: inverse
.hand[discussion... what will this do?]

```r
results %>% arrange(feature) %>% print(n = 6)
```

```
## # A tibble: 120 x 5
##   participant feature    est  true band   
##         <dbl> <chr>    <dbl> <dbl> <chr>  
## 1          10 CLCE.2.1    95  99.1 Band 99
## 2          20 CLCE.2.1    99  99.1 Band 99
## 3          10 CLCF.2.1    80  79.8 Band 75
## 4          20 CLCF.2.1    50  79.8 Band 75
## 5          10 CLCF.6.5    70  50.9 Band 50
## 6          20 CLCF.6.5    65  50.9 Band 50
## # … with 114 more rows
```
…
---
class: inverse
.hand[discussion... what will this do?]

```r
full_join(surveys, results) %>% print(n = 4, width = 58)
```

```
## Joining, by = "participant"
```

```
## # A tibble: 120 x 13
##   participant us      age handwriting_exp…
##         <dbl> <chr> <dbl> <chr>           
## 1          10 US       33 HW Expert       
## 2          10 US       33 HW Expert       
## 3          10 US       33 HW Expert       
## 4          10 US       33 HW Expert       
## # … with 116 more rows, and 9 more variables:
## #   forensic_scientist <chr>, forensic_specialty <chr>,
## #   handwriting_reports <dbl>, confidence <dbl>,
## #   familiarity <dbl>, feature <chr>, est <dbl>,
## #   true <dbl>, band <chr>
```
…
